{
  "director": "DollsHouse",
  "directorAttributes": [
    {
      "name": "menuName",
      "value": "menu"
    },
    {
      "name": "gravity",
      "value": "0.0x0.0"
    },
    {
      "name": "scale",
      "value": "0.87"
    }
  ],
  "background": "#000000",
  "showMouse": false,
  "layout": "default",
  "snapToGrid": {
    "enabled": false,
    "xSpacing": 50,
    "ySpacing": 50,
    "xOffset": 0,
    "yOffset": 0,
    "xCloseness": 10,
    "yCloseness": 10
  },
  "snapToGuides": {
    "enabled": true,
    "closeness": 5,
    "x": [
      
    ],
    "y": [
      
    ]
  },
  "snapToOthers": {
    "enabled": true,
    "xCloseness": 10,
    "yCloseness": 10
  },
  "snapRotation": {
    "enabled": true,
    "step": 15,
    "closeness": 15
  },
  "include": [
    "dollsHouseExtras",
    "glass"
  ],
  "stages": [
    {
      "name": "main",
      "actors": [
        {
          "costume": "wood",
          "x": -4,
          "y": -7.5,
          "sizeX": 1837.4,
          "sizeY": 67.899994,
          "alignmentX": 0,
          "alignmentY": 0
        },
        {
          "costume": "clock",
          "x": 357,
          "y": 691.5,
          "attributes": [
            {
              "name": "rewardForScene",
              "value": "shah/02"
            }
          ]
        },
        {
          "costume": "corkboard",
          "x": 919.41284,
          "y": 542.13043,
          "attributes": [
            {
              "name": "rewardForScene",
              "value": ""
            }
          ]
        },
        {
          "costume": "wall",
          "x": -3.6172557,
          "y": 57.781628,
          "sizeX": 46.44917,
          "sizeY": 948.0985,
          "alignmentX": 0,
          "alignmentY": 0
        },
        {
          "costume": "postcardA",
          "x": 761,
          "y": 690.8,
          "direction": 354.0696481322952,
          "attributes": [
            {
              "name": "scene",
              "value": "shah/01"
            },
            {
              "name": "requires",
              "value": ""
            }
          ]
        },
        {
          "costume": "wall",
          "x": 1783.7921,
          "y": 55.999992,
          "sizeX": 46.656006,
          "sizeY": 946.4241,
          "alignmentX": 0,
          "alignmentY": 0
        },
        {
          "costume": "postcardB",
          "x": 878.5,
          "y": 653.5,
          "attributes": [
            {
              "name": "requires",
              "value": "shah/01"
            },
            {
              "name": "scene",
              "value": "shah/02"
            }
          ]
        },
        {
          "costume": "boundsBL",
          "x": -1.5,
          "y": -2.5
        },
        {
          "costume": "boundsTR",
          "x": 2801,
          "y": 1406
        },
        {
          "costume": "postcardC",
          "x": 1001,
          "y": 703,
          "direction": 14.999999999999998,
          "attributes": [
            {
              "name": "requires",
              "value": "shah/02"
            },
            {
              "name": "scene",
              "value": "shah/03"
            }
          ]
        },
        {
          "costume": "postcardD",
          "x": 780,
          "y": 523,
          "direction": 330,
          "attributes": [
            {
              "name": "requires",
              "value": "shah/03"
            },
            {
              "name": "scene",
              "value": "shah/04"
            }
          ]
        },
        {
          "costume": "postcardE",
          "x": 945.5,
          "y": 515,
          "direction": 345,
          "attributes": [
            {
              "name": "requires",
              "value": "shah/04"
            },
            {
              "name": "scene",
              "value": "shah/05"
            }
          ]
        },
        {
          "costume": "postcardF",
          "x": 1069,
          "y": 549.5,
          "direction": 6.84277341263094,
          "attributes": [
            {
              "name": "requires",
              "value": "shah/05"
            },
            {
              "name": "scene",
              "value": "shah/06"
            }
          ]
        },
        {
          "costume": "wood",
          "x": -3.5,
          "y": 1002.5,
          "sizeX": 1836.5,
          "sizeY": 62.5,
          "alignmentX": 0,
          "alignmentY": 0
        },
        {
          "costume": "asul",
          "x": 929,
          "y": 485,
          "scaleX": 0.5,
          "scaleY": 0.5,
          "attributes": [
            {
              "name": "rewardForScene",
              "value": "asul/02"
            }
          ]
        },
        {
          "costume": "jishna",
          "x": 144.5,
          "y": 317.5,
          "scaleX": 0.41,
          "scaleY": 0.41,
          "attributes": [
            {
              "name": "rewardForScene",
              "value": "shah/01"
            }
          ]
        },
        {
          "costume": "eesha",
          "x": 565.5,
          "y": 300.5,
          "scaleX": 0.5,
          "scaleY": 0.5,
          "attributes": [
            {
              "name": "rewardForScene",
              "value": "shah/01"
            }
          ]
        },
        {
          "costume": "chair1",
          "x": 148,
          "y": 136.5,
          "attributes": [
            {
              "name": "rewardForScene",
              "value": "shah/01"
            }
          ]
        },
        {
          "costume": "chair2",
          "x": 566,
          "y": 141.5,
          "attributes": [
            {
              "name": "rewardForScene",
              "value": "shah/01"
            }
          ]
        },
        {
          "costume": "table",
          "x": 1498,
          "y": 67.5,
          "attributes": [
            {
              "name": "rewardForScene",
              "value": "shah/03"
            }
          ]
        },
        {
          "costume": "lamp2",
          "x": 1464,
          "y": 219.5,
          "attributes": [
            {
              "name": "rewardForScene",
              "value": "shah/03"
            }
          ]
        },
        {
          "costume": "table",
          "x": 339.5,
          "y": 68.5,
          "attributes": [
            {
              "name": "rewardForScene",
              "value": "shah/04"
            }
          ]
        },
        {
          "costume": "teapot",
          "x": 347.5,
          "y": 214.5,
          "attributes": [
            {
              "name": "rewardForScene",
              "value": "shah/04"
            }
          ]
        },
        {
          "costume": "teacup",
          "name": "asul/04",
          "x": 452,
          "y": 219,
          "attributes": [
            {
              "name": "rewardForScene",
              "value": ""
            }
          ]
        },
        {
          "costume": "teacup",
          "name": "asul/04",
          "x": 230.5,
          "y": 214.5,
          "attributes": [
            {
              "name": "rewardForScene",
              "value": ""
            }
          ]
        },
        {
          "costume": "bell",
          "x": 1537.5,
          "y": 784,
          "attributes": [
            {
              "name": "ceiling",
              "value": "-4.0x218.0"
            },
            {
              "name": "requiredImpact",
              "value": "50"
            }
          ]
        },
        {
          "costume": "bony",
          "x": 919.5,
          "y": 1269.5,
          "attributes": [
            {
              "name": "rewardForScene",
              "value": "shah/06"
            }
          ]
        },
        {
          "costume": "bony",
          "x": 793.5,
          "y": 1273,
          "attributes": [
            {
              "name": "rewardForScene",
              "value": "shah/06"
            }
          ]
        },
        {
          "costume": "bony",
          "x": 1080,
          "y": 1261,
          "attributes": [
            {
              "name": "rewardForScene",
              "value": "shah/06"
            }
          ]
        },
        {
          "costume": "bony",
          "x": 383.5,
          "y": 1275.5,
          "attributes": [
            {
              "name": "rewardForScene",
              "value": "shah/06"
            }
          ]
        },
        {
          "costume": "bony",
          "x": 207.5,
          "y": 1275.5,
          "attributes": [
            {
              "name": "rewardForScene",
              "value": "shah/06"
            }
          ]
        },
        {
          "costume": "bony",
          "x": 614,
          "y": 1271.5,
          "attributes": [
            {
              "name": "rewardForScene",
              "value": "shah/06"
            }
          ]
        },
        {
          "costume": "paper3",
          "x": 20.699987,
          "y": 49.799984,
          "sizeX": 1774.2001,
          "sizeY": 984.20013,
          "alignmentX": 0,
          "alignmentY": 0
        },
        {
          "costume": "grass",
          "x": 1832.2413,
          "y": -7.000022,
          "sizeX": 1126.2585,
          "sizeY": 76.50002,
          "alignmentX": 0,
          "alignmentY": 0
        },
        {
          "costume": "fencePost",
          "x": 2717.58,
          "y": 46.55997
        },
        {
          "costume": "vase1",
          "x": 1596,
          "y": 220,
          "scaleX": 2,
          "scaleY": 2,
          "attributes": [
            {
              "name": "rewardForScene",
              "value": "shah/06"
            }
          ]
        },
        {
          "costume": "foxie",
          "x": 1603,
          "y": 579,
          "scaleX": 0.6,
          "scaleY": 0.6,
          "attributes": [
            {
              "name": "rewardForScene",
              "value": "shah/06"
            }
          ]
        },
        {
          "costume": "boundsTR",
          "x": 1828.5,
          "y": 1577.5
        }
      ]
    },
    {
      "name": "glass",
      "actors": [
        {
          "costume": "screenshot",
          "x": 622,
          "y": 10.5,
          "text": "mini screenshot",
          "attributes": [
            {
              "name": "delayInTicks",
              "value": "120"
            },
            {
              "name": "filename",
              "value": "screenshots/shahMini.png"
            },
            {
              "name": "overwrite",
              "value": "false"
            },
            {
              "name": "thumbnailWidth",
              "value": "320"
            }
          ]
        },
        {
          "costume": "screenshot",
          "x": 882,
          "y": 13,
          "text": "screenshot",
          "attributes": [
            {
              "name": "delayInTicks",
              "value": "120"
            },
            {
              "name": "filename",
              "value": "screenshots/shah.png"
            },
            {
              "name": "overwrite",
              "value": "false"
            },
            {
              "name": "thumbnailWidth",
              "value": "0"
            }
          ]
        }
      ]
    }
  ]
}