{
  "director": "Play",
  "directorAttributes": [
    {
      "name": "menuName",
      "value": "tutorial/tutorial"
    },
    {
      "name": "gravity",
      "value": "0.0x-100.0"
    }
  ],
  "background": "#000000",
  "showMouse": false,
  "layout": "default",
  "snapToGrid": {
    "enabled": false,
    "xSpacing": 50,
    "ySpacing": 50,
    "xOffset": 0,
    "yOffset": 0,
    "xCloseness": 10,
    "yCloseness": 10
  },
  "snapToGuides": {
    "enabled": true,
    "closeness": 5,
    "x": [
      
    ],
    "y": [
      
    ]
  },
  "snapToOthers": {
    "enabled": true,
    "xCloseness": 10,
    "yCloseness": 10
  },
  "snapRotation": {
    "enabled": true,
    "step": 15,
    "closeness": 15
  },
  "include": [
    "glass",
    "aim",
    "tutorial/info"
  ],
  "stages": [
    {
      "name": "main",
      "actors": [
        {
          "costume": "launcher",
          "x": 592,
          "y": 352,
          "attributes": [
            {
              "name": "dollName",
              "value": "annie"
            },
            {
              "name": "speed",
              "value": "350"
            },
            {
              "name": "randomSeed",
              "value": "0"
            },
            {
              "name": "scale",
              "value": "1"
            },
            {
              "name": "maxDolls",
              "value": "5"
            }
          ]
        },
        {
          "costume": "wall",
          "x": 0,
          "y": 0,
          "sizeX": 50.752,
          "sizeY": 773.248,
          "alignmentX": 0,
          "alignmentY": 0
        },
        {
          "costume": "wood",
          "x": -4,
          "y": 726.856,
          "sizeX": 1286.088,
          "sizeY": 77.144,
          "alignmentX": 0,
          "alignmentY": 0
        },
        {
          "costume": "pin",
          "x": 275,
          "y": 70,
          "attributes": [
            {
              "name": "rewardForScene",
              "value": ""
            }
          ]
        },
        {
          "costume": "wall",
          "x": 1236.16,
          "y": 1,
          "sizeX": 44.84,
          "sizeY": 765.336,
          "alignmentX": 0,
          "alignmentY": 0
        },
        {
          "costume": "pin",
          "x": 931,
          "y": 381,
          "attributes": [
            {
              "name": "rewardForScene",
              "value": ""
            }
          ]
        },
        {
          "costume": "pin",
          "x": 224,
          "y": 393,
          "attributes": [
            {
              "name": "rewardForScene",
              "value": ""
            }
          ]
        },
        {
          "costume": "pin",
          "x": 1015,
          "y": 72,
          "attributes": [
            {
              "name": "rewardForScene",
              "value": ""
            }
          ]
        },
        {
          "costume": "wood",
          "x": 50,
          "y": 340,
          "sizeX": 210,
          "sizeY": 40,
          "alignmentX": 0,
          "alignmentY": 0
        },
        {
          "costume": "wood",
          "x": 830.08,
          "y": 320,
          "sizeX": 410.92,
          "sizeY": 48.896,
          "alignmentX": 0,
          "alignmentY": 0
        },
        {
          "costume": "wall",
          "x": 593,
          "y": -3,
          "sizeX": 46,
          "sizeY": 209,
          "alignmentX": 0,
          "alignmentY": 0
        },
        {
          "costume": "wood",
          "x": 50,
          "y": -1,
          "sizeX": 1188,
          "sizeY": 45,
          "alignmentX": 0,
          "alignmentY": 0
        },
        {
          "costume": "boundsTR",
          "x": 1280,
          "y": 699.5
        },
        {
          "costume": "boundsBL",
          "x": 0,
          "y": 0
        }
      ]
    },
    {
      "name": "glass",
      "actors": [
        {
          "costume": "countdown",
          "x": 640,
          "y": 761,
          "text": "0:00",
          "autoPositionAlignmentX": 0.5,
          "autoPositionAlignmentY": 1,
          "attributes": [
            {
              "name": "seconds",
              "value": "20"
            }
          ]
        },
        {
          "costume": "information",
          "x": 349.5,
          "y": 638.5,
          "text": "You only have 20 seconds to finish the level !",
          "autoPositionAlignmentX": 0.3,
          "autoPositionAlignmentY": 1
        },
        {
          "costume": "information",
          "x": 352,
          "y": 694.5,
          "text": "This is the last tutorial !",
          "autoPositionAlignmentX": 0.3,
          "autoPositionAlignmentY": 1
        }
      ]
    }
  ]
}