{
  "director": "DollsHouse",
  "directorAttributes": [
    {
      "name": "menuName",
      "value": "menu"
    },
    {
      "name": "gravity",
      "value": "0.0x0.0"
    }
  ],
  "background": "#000000",
  "showMouse": false,
  "layout": "default",
  "snapToGrid": {
    "enabled": false,
    "xSpacing": 50,
    "ySpacing": 50,
    "xOffset": 0,
    "yOffset": 0,
    "xCloseness": 10,
    "yCloseness": 10
  },
  "snapToGuides": {
    "enabled": true,
    "closeness": 5,
    "x": [
      
    ],
    "y": [
      
    ]
  },
  "snapToOthers": {
    "enabled": false,
    "xCloseness": 10,
    "yCloseness": 10
  },
  "snapRotation": {
    "enabled": true,
    "step": 15,
    "closeness": 15
  },
  "include": [
    "dollsHouseExtras",
    "glass"
  ],
  "stages": [
    {
      "name": "main",
      "actors": [
        {
          "costume": "wood",
          "x": -4,
          "y": -7.5,
          "sizeX": 1837.4,
          "sizeY": 67.899994,
          "alignmentX": 0,
          "alignmentY": 0
        },
        {
          "costume": "table",
          "x": 530,
          "y": 71.5,
          "attributes": [
            {
              "name": "rewardForScene",
              "value": "tutorial/02"
            }
          ]
        },
        {
          "costume": "annie",
          "x": 246.5,
          "y": 242,
          "attributes": [
            {
              "name": "rewardForScene",
              "value": "tutorial/01"
            }
          ]
        },
        {
          "costume": "clock",
          "x": 194.5,
          "y": 662.5,
          "attributes": [
            {
              "name": "rewardForScene",
              "value": "tutorial/05"
            }
          ]
        },
        {
          "costume": "corkboard",
          "x": 919.41284,
          "y": 542.13043,
          "attributes": [
            {
              "name": "rewardForScene",
              "value": ""
            }
          ]
        },
        {
          "costume": "wall",
          "x": -3.6172557,
          "y": 57.781628,
          "sizeX": 46.44917,
          "sizeY": 948.0985,
          "alignmentX": 0,
          "alignmentY": 0
        },
        {
          "costume": "postcardA",
          "x": 761,
          "y": 690.8,
          "direction": 354.0696481322952,
          "attributes": [
            {
              "name": "scene",
              "value": "tutorial/01"
            },
            {
              "name": "requires",
              "value": ""
            }
          ]
        },
        {
          "costume": "wall",
          "x": 1783.7921,
          "y": 55.999992,
          "sizeX": 46.656006,
          "sizeY": 946.4241,
          "alignmentX": 0,
          "alignmentY": 0
        },
        {
          "costume": "paper2",
          "x": 28.5,
          "y": 9.283957,
          "sizeX": 1796,
          "sizeY": 1005.21606,
          "alignmentX": 0,
          "alignmentY": 0
        },
        {
          "costume": "postcardB",
          "x": 878.5,
          "y": 653.5,
          "attributes": [
            {
              "name": "requires",
              "value": "tutorial/01"
            },
            {
              "name": "scene",
              "value": "tutorial/02"
            }
          ]
        },
        {
          "costume": "boundsBL",
          "x": -1.5,
          "y": -2.5
        },
        {
          "costume": "boundsTR",
          "x": 1829.5,
          "y": 1109
        },
        {
          "costume": "postcardC",
          "x": 1001,
          "y": 703,
          "direction": 14.999999999999998,
          "attributes": [
            {
              "name": "requires",
              "value": "tutorial/02"
            },
            {
              "name": "scene",
              "value": "tutorial/03"
            }
          ]
        },
        {
          "costume": "postcardD",
          "x": 1117,
          "y": 631,
          "attributes": [
            {
              "name": "requires",
              "value": "tutorial/03"
            },
            {
              "name": "scene",
              "value": "tutorial/04"
            }
          ]
        },
        {
          "costume": "postcardE",
          "x": 749.5,
          "y": 538.5,
          "direction": 345,
          "attributes": [
            {
              "name": "requires",
              "value": "tutorial/04"
            },
            {
              "name": "scene",
              "value": "tutorial/05"
            }
          ]
        },
        {
          "costume": "postcardF",
          "x": 837.5,
          "y": 498.5,
          "direction": 6.84277341263094,
          "attributes": [
            {
              "name": "requires",
              "value": "tutorial/05"
            },
            {
              "name": "scene",
              "value": "tutorial/06"
            }
          ]
        },
        {
          "costume": "postcardG",
          "x": 979,
          "y": 496,
          "direction": 14.999999999999998,
          "attributes": [
            {
              "name": "requires",
              "value": "tutorial/06"
            },
            {
              "name": "scene",
              "value": "tutorial/07"
            }
          ]
        },
        {
          "costume": "postcardH",
          "x": 1135,
          "y": 451,
          "direction": 356.1493611760892,
          "attributes": [
            {
              "name": "requires",
              "value": "tutorial/07"
            },
            {
              "name": "scene",
              "value": "tutorial/08"
            }
          ]
        },
        {
          "costume": "corkboard",
          "x": 1497,
          "y": 591.379,
          "scaleX": 0.7625786,
          "scaleY": 0.78675,
          "attributes": [
            {
              "name": "rewardForScene",
              "value": "tutorial/08"
            }
          ]
        },
        {
          "costume": "postcardA",
          "x": 1525,
          "y": 707,
          "direction": 14.999999999999998,
          "attributes": [
            {
              "name": "requires",
              "value": "tutorial/08"
            },
            {
              "name": "scene",
              "value": "tutorial/09"
            }
          ]
        },
        {
          "costume": "postcardB",
          "x": 1413,
          "y": 609.5,
          "direction": 346.6397815552355,
          "attributes": [
            {
              "name": "requires",
              "value": "tutorial/09"
            },
            {
              "name": "scene",
              "value": "tutorial/10"
            }
          ]
        },
        {
          "costume": "postcardC",
          "x": 1608,
          "y": 576.5,
          "direction": 7.853313301978219,
          "attributes": [
            {
              "name": "requires",
              "value": "tutorial/10"
            },
            {
              "name": "scene",
              "value": "tutorial/11"
            }
          ]
        },
        {
          "costume": "vase1",
          "x": 442.5,
          "y": 220.5,
          "attributes": [
            {
              "name": "rewardForScene",
              "value": "tutorial/03"
            }
          ]
        },
        {
          "costume": "teapot",
          "x": 640.5,
          "y": 215.5,
          "attributes": [
            {
              "name": "rewardForScene",
              "value": "tutorial/04"
            }
          ]
        },
        {
          "costume": "lamp1",
          "x": 1427,
          "y": 217.5,
          "attributes": [
            {
              "name": "rewardForScene",
              "value": "tutorial/07"
            }
          ]
        },
        {
          "costume": "foxie",
          "x": 1600,
          "y": 365.5,
          "attributes": [
            {
              "name": "rewardForScene",
              "value": "tutorial/09"
            }
          ]
        },
        {
          "costume": "table",
          "x": 1468.5,
          "y": 71,
          "attributes": [
            {
              "name": "rewardForScene",
              "value": "tutorial/06"
            }
          ]
        },
        {
          "costume": "wood",
          "x": -3.5,
          "y": 1002.5,
          "sizeX": 1836.5,
          "sizeY": 62.5,
          "alignmentX": 0,
          "alignmentY": 0
        },
        {
          "costume": "cooker",
          "x": 985.5,
          "y": 65,
          "attributes": [
            {
              "name": "rewardForScene",
              "value": "tutorial/11"
            }
          ]
        },
        {
          "costume": "foxie",
          "x": 1700,
          "y": 333.5,
          "attributes": [
            {
              "name": "rewardForScene",
              "value": "tutorial/11"
            }
          ]
        },
        {
          "costume": "foxie",
          "x": 1334,
          "y": 353,
          "attributes": [
            {
              "name": "rewardForScene",
              "value": "tutorial/11"
            }
          ]
        },
        {
          "costume": "information",
          "x": 679.5,
          "y": 47,
          "text": "Click a postcard to start. You will get new postcards later!",
          "textVAlignment": "TOP"
        }
      ]
    }
  ]
}